Name             Stmts   Miss  Cover   Missing
----------------------------------------------
Collatz.py          65      1    98%   1067
TestCollatz.py      71      0   100%
----------------------------------------------
TOTAL              136      1    99%
